0.000000000000000000e+00 0.000000000000000000e+00
2.500000000000000000e-01 9.760189898539658321e-03
5.000000000000000000e-01 3.124308104294616986e-02
7.500000000000000000e-01 5.730471039093488345e-02
1.000000000000000000e+00 8.657124405099146658e-02
1.250000000000000000e+00 1.187695614730878424e-01
1.500000000000000000e+00 1.538533960339943107e-01
1.750000000000000000e+00 1.917691838526911219e-01
2.000000000000000000e+00 2.323766997167138471e-01
2.250000000000000000e+00 2.754335325779035948e-01
2.500000000000000000e+00 3.206055524079319818e-01
2.750000000000000000e+00 3.674845694050992151e-01
3.000000000000000000e+00 4.156068441926347168e-01
3.250000000000000000e+00 4.644738101983003076e-01
3.500000000000000000e+00 5.135753569405102636e-01
3.750000000000000000e+00 5.624147365439092772e-01
4.000000000000000000e+00 6.105318186968838878e-01
4.250000000000000000e+00 6.575223002832857322e-01
4.500000000000000000e+00 7.030501954674217568e-01
4.750000000000000000e+00 7.468529603399436390e-01
5.000000000000000000e+00 7.887394334277624264e-01
5.250000000000000000e+00 8.285809291784701491e-01
5.500000000000000000e+00 8.662983767705386695e-01
5.750000000000000000e+00 9.018523711048164193e-01
6.000000000000000000e+00 9.352412691218130458e-01
6.250000000000000000e+00 9.664982521246459068e-01
6.500000000000000000e+00 9.956835240793209252e-01
6.750000000000000000e+00 1.022875495750707797e+00
7.000000000000000000e+00 1.048161926345609452e+00
7.250000000000000000e+00 1.071634192634560723e+00
7.500000000000000000e+00 1.093382917847024460e+00
7.750000000000000000e+00 1.113496373937677086e+00
8.000000000000000000e+00 1.132058895184136826e+00
8.250000000000000000e+00 1.149148866855523643e+00
8.500000000000000000e+00 1.164841019830028968e+00
8.750000000000000000e+00 1.179204334277621280e+00
9.000000000000000000e+00 1.192303852691217969e+00
9.250000000000000000e+00 1.204200056657223961e+00
9.500000000000000000e+00 1.214944022662889367e+00
9.750000000000000000e+00 1.224480028328612580e+00
1.000000000000000000e+01 1.232736742209631586e+00
1.025000000000000000e+01 1.239883909348442614e+00
1.050000000000000000e+01 1.246058951841360729e+00
1.075000000000000000e+01 1.251377422096315417e+00
1.100000000000000000e+01 1.255938186968837966e+00
1.125000000000000000e+01 1.259824050991501965e+00
1.150000000000000000e+01 1.263106657223796336e+00
1.175000000000000000e+01 1.265848725212465054e+00
1.200000000000000000e+01 1.268104447592067086e+00
1.225000000000000000e+01 1.269921161473088533e+00
1.250000000000000000e+01 1.271341331444759026e+00
1.275000000000000000e+01 1.272401359773372764e+00
1.300000000000000000e+01 1.273135382436260565e+00
1.325000000000000000e+01 1.273572294617562273e+00
1.350000000000000000e+01 1.273738810198300264e+00
1.375000000000000000e+01 1.273658951841360132e+00
1.400000000000000000e+01 1.273353909348441393e+00
1.425000000000000000e+01 1.272843512747873662e+00
1.450000000000000000e+01 1.272145184135978324e+00
1.475000000000000000e+01 1.271275240793201311e+00
1.500000000000000000e+01 1.270247903682720558e+00
1.525000000000000000e+01 1.269078130311615205e+00
1.550000000000000000e+01 1.267777903682720364e+00
1.575000000000000000e+01 1.266358810198301432e+00
1.600000000000000000e+01 1.264830623229461271e+00
1.625000000000000000e+01 1.263203994334277658e+00
1.650000000000000000e+01 1.261486657223796159e+00
1.675000000000000000e+01 1.259686997167138722e+00
1.700000000000000000e+01 1.257812946175637769e+00
1.725000000000000000e+01 1.255870368271956083e+00
1.750000000000000000e+01 1.253866713881018446e+00
1.775000000000000000e+01 1.251807790368271833e+00
1.800000000000000000e+01 1.249698356940509347e+00
1.825000000000000000e+01 1.247544334277620681e+00
1.850000000000000000e+01 1.245350056657224425e+00
1.875000000000000000e+01 1.243120000000000003e+00
1.900000000000000000e+01 1.240857932011332432e+00
1.925000000000000000e+01 1.238568838526912685e+00
1.950000000000000000e+01 1.236255014164305388e+00
1.975000000000000000e+01 1.233920368271954615e+00
2.000000000000000000e+01 1.231567620396601059e+00
2.025000000000000000e+01 1.229200339943342657e+00
2.050000000000000000e+01 1.226820566572237592e+00
2.075000000000000000e+01 1.224431048158639568e+00
